State,Year,Fatalities
Washington,1997,674
Washington,1998,662
Washington,1999,637
Washington,2000,631
Washington,2001,649
Washington,2002,658
Washington,2003,600
Washington,2004,567
Washington,2005,649
Washington,2006,633
Washington,2007,571
Washington,2008,521
Washington,2009,492
Washington,2010,460
Washington,2011,454
Washington,2012,438
Washington,2013,436
Washington,2014,462
Washington,2015,551
Washington,2016,536
Washington,2017,565
Colorado,1997,613
Colorado,1998,628
Colorado,1999,626
Colorado,2000,681
Colorado,2001,741
Colorado,2002,743
Colorado,2003,642
Colorado,2004,667
Colorado,2005,606
Colorado,2006,535
Colorado,2007,554
Colorado,2008,548
Colorado,2009,465
Colorado,2010,450
Colorado,2011,447
Colorado,2012,474
Colorado,2013,482
Colorado,2014,488
Colorado,2015,547
Colorado,2016,608
Colorado,2017,648
Alaska,1997,77
Alaska,1998,70
Alaska,1999,79
Alaska,2000,106
Alaska,2001,89
Alaska,2002,89
Alaska,2003,98
Alaska,2004,101
Alaska,2005,73
Alaska,2006,74
Alaska,2007,82
Alaska,2008,62
Alaska,2009,64
Alaska,2010,56
Alaska,2011,72
Alaska,2012,59
Alaska,2013,51
Alaska,2014,73
Alaska,2015,65
Alaska,2016,84
Alaska,2017,79
Oregon,1997,524
Oregon,1998,538
Oregon,1999,414
Oregon,2000,451
Oregon,2001,488
Oregon,2002,436
Oregon,2003,512
Oregon,2004,456
Oregon,2005,487
Oregon,2006,478
Oregon,2007,455
Oregon,2008,416
Oregon,2009,377
Oregon,2010,317
Oregon,2011,331
Oregon,2012,337
Oregon,2013,313
Oregon,2014,357
Oregon,2015,446
Oregon,2016,498
Oregon,2017,437
Maine,1997,192
Maine,1998,192
Maine,1999,181
Maine,2000,169
Maine,2001,192
Maine,2002,216
Maine,2003,207
Maine,2004,194
Maine,2005,169
Maine,2006,188
Maine,2007,183
Maine,2008,155
Maine,2009,159
Maine,2010,161
Maine,2011,136
Maine,2012,164
Maine,2013,144
Maine,2014,131
Maine,2015,156
Maine,2016,160
Maine,2017,172
Massachusetts,1997,441
Massachusetts,1998,406
Massachusetts,1999,414
Massachusetts,2000,433
Massachusetts,2001,477
Massachusetts,2002,459
Massachusetts,2003,462
Massachusetts,2004,476
Massachusetts,2005,441
Massachusetts,2006,429
Massachusetts,2007,434
Massachusetts,2008,364
Massachusetts,2009,340
Massachusetts,2010,347
Massachusetts,2011,374
Massachusetts,2012,383
Massachusetts,2013,351
Massachusetts,2014,354
Massachusetts,2015,344
Massachusetts,2016,387
Massachusetts,2017,350
Nevada,1997,347
Nevada,1998,361
Nevada,1999,350
Nevada,2000,323
Nevada,2001,314
Nevada,2002,381
Nevada,2003,368
Nevada,2004,395
Nevada,2005,427
Nevada,2006,431
Nevada,2007,373
Nevada,2008,324
Nevada,2009,243
Nevada,2010,257
Nevada,2011,246
Nevada,2012,261
Nevada,2013,266
Nevada,2014,291
Nevada,2015,326
Nevada,2016,329
Nevada,2017,309
California,1997,3688
California,1998,3494
California,1999,3559
California,2000,3753
California,2001,3956
California,2002,4088
California,2003,4224
California,2004,4120
California,2005,4333
California,2006,4240
California,2007,3995
California,2008,3434
California,2009,3090
California,2010,2720
California,2011,2816
California,2012,2966
California,2013,3107
California,2014,3102
California,2015,3387
California,2016,3837
California,2017,3602
Vermont,1997,96
Vermont,1998,104
Vermont,1999,90
Vermont,2000,76
Vermont,2001,92
Vermont,2002,78
Vermont,2003,69
Vermont,2004,98
Vermont,2005,73
Vermont,2006,87
Vermont,2007,66
Vermont,2008,73
Vermont,2009,74
Vermont,2010,71
Vermont,2011,55
Vermont,2012,77
Vermont,2013,69
Vermont,2014,44
Vermont,2015,57
Vermont,2016,62
Vermont,2017,69
Alabama,1997,1192
Alabama,1998,1071
Alabama,1999,1138
Alabama,2000,996
Alabama,2001,991
Alabama,2002,1038
Alabama,2003,1004
Alabama,2004,1154
Alabama,2005,1148
Alabama,2006,1207
Alabama,2007,1110
Alabama,2008,969
Alabama,2009,848
Alabama,2010,862
Alabama,2011,895
Alabama,2012,865
Alabama,2013,853
Alabama,2014,820
Alabama,2015,850
Alabama,2016,1083
Alabama,2017,948
Arizona,1997,951
Arizona,1998,980
Arizona,1999,1024
Arizona,2000,1036
Arizona,2001,1051
Arizona,2002,1132
Arizona,2003,1118
Arizona,2004,1151
Arizona,2005,1179
Arizona,2006,1293
Arizona,2007,1071
Arizona,2008,938
Arizona,2009,806
Arizona,2010,759
Arizona,2011,826
Arizona,2012,821
Arizona,2013,849
Arizona,2014,773
Arizona,2015,897
Arizona,2016,952
Arizona,2017,1000
Arkansas,1997,660
Arkansas,1998,625
Arkansas,1999,604
Arkansas,2000,652
Arkansas,2001,611
Arkansas,2002,640
Arkansas,2003,640
Arkansas,2004,703
Arkansas,2005,654
Arkansas,2006,665
Arkansas,2007,649
Arkansas,2008,600
Arkansas,2009,596
Arkansas,2010,571
Arkansas,2011,551
Arkansas,2012,560
Arkansas,2013,498
Arkansas,2014,470
Arkansas,2015,550
Arkansas,2016,561
Arkansas,2017,493
Florida,1997,2785
Florida,1998,2825
Florida,1999,2920
Florida,2000,2999
Florida,2001,3012
Florida,2002,3136
Florida,2003,3169
Florida,2004,3244
Florida,2005,3518
Florida,2006,3357
Florida,2007,3213
Florida,2008,2980
Florida,2009,2560
Florida,2010,2444
Florida,2011,2400
Florida,2012,2431
Florida,2013,2403
Florida,2014,2494
Florida,2015,2938
Florida,2016,3176
Florida,2017,3112
Georgia,1997,1577
Georgia,1998,1568
Georgia,1999,1508
Georgia,2000,1541
Georgia,2001,1647
Georgia,2002,1524
Georgia,2003,1603
Georgia,2004,1634
Georgia,2005,1729
Georgia,2006,1693
Georgia,2007,1641
Georgia,2008,1495
Georgia,2009,1292
Georgia,2010,1247
Georgia,2011,1226
Georgia,2012,1192
Georgia,2013,1180
Georgia,2014,1164
Georgia,2015,1432
Georgia,2016,1556
Georgia,2017,1540
Hawaii,1997,131
Hawaii,1998,120
Hawaii,1999,98
Hawaii,2000,132
Hawaii,2001,140
Hawaii,2002,119
Hawaii,2003,133
Hawaii,2004,142
Hawaii,2005,140
Hawaii,2006,161
Hawaii,2007,138
Hawaii,2008,107
Hawaii,2009,109
Hawaii,2010,113
Hawaii,2011,100
Hawaii,2012,125
Hawaii,2013,102
Hawaii,2014,95
Hawaii,2015,93
Hawaii,2016,120
Hawaii,2017,107
Idaho,1997,259
Idaho,1998,265
Idaho,1999,278
Idaho,2000,276
Idaho,2001,259
Idaho,2002,264
Idaho,2003,293
Idaho,2004,260
Idaho,2005,275
Idaho,2006,267
Idaho,2007,252
Idaho,2008,232
Idaho,2009,226
Idaho,2010,209
Idaho,2011,167
Idaho,2012,184
Idaho,2013,214
Idaho,2014,186
Idaho,2015,216
Idaho,2016,253
Idaho,2017,244
Indiana,1997,935
Indiana,1998,982
Indiana,1999,1020
Indiana,2000,886
Indiana,2001,909
Indiana,2002,792
Indiana,2003,833
Indiana,2004,947
Indiana,2005,938
Indiana,2006,902
Indiana,2007,898
Indiana,2008,820
Indiana,2009,693
Indiana,2010,754
Indiana,2011,751
Indiana,2012,781
Indiana,2013,784
Indiana,2014,745
Indiana,2015,817
Indiana,2016,829
Indiana,2017,914
Iowa,1997,468
Iowa,1998,449
Iowa,1999,490
Iowa,2000,445
Iowa,2001,446
Iowa,2002,405
Iowa,2003,443
Iowa,2004,388
Iowa,2005,450
Iowa,2006,439
Iowa,2007,446
Iowa,2008,412
Iowa,2009,371
Iowa,2010,390
Iowa,2011,360
Iowa,2012,365
Iowa,2013,317
Iowa,2014,322
Iowa,2015,320
Iowa,2016,402
Iowa,2017,330
Kansas,1997,482
Kansas,1998,492
Kansas,1999,540
Kansas,2000,461
Kansas,2001,494
Kansas,2002,507
Kansas,2003,469
Kansas,2004,459
Kansas,2005,428
Kansas,2006,468
Kansas,2007,416
Kansas,2008,384
Kansas,2009,386
Kansas,2010,431
Kansas,2011,386
Kansas,2012,405
Kansas,2013,350
Kansas,2014,385
Kansas,2015,355
Kansas,2016,429
Kansas,2017,461
Kentucky,1997,857
Kentucky,1998,858
Kentucky,1999,814
Kentucky,2000,820
Kentucky,2001,845
Kentucky,2002,915
Kentucky,2003,928
Kentucky,2004,964
Kentucky,2005,985
Kentucky,2006,913
Kentucky,2007,864
Kentucky,2008,825
Kentucky,2009,791
Kentucky,2010,760
Kentucky,2011,720
Kentucky,2012,746
Kentucky,2013,638
Kentucky,2014,672
Kentucky,2015,761
Kentucky,2016,834
Kentucky,2017,782
Louisiana,1997,931
Louisiana,1998,926
Louisiana,1999,938
Louisiana,2000,938
Louisiana,2001,952
Louisiana,2002,907
Louisiana,2003,940
Louisiana,2004,927
Louisiana,2005,963
Louisiana,2006,987
Louisiana,2007,993
Louisiana,2008,916
Louisiana,2009,824
Louisiana,2010,721
Louisiana,2011,680
Louisiana,2012,723
Louisiana,2013,703
Louisiana,2014,740
Louisiana,2015,752
Louisiana,2016,757
Louisiana,2017,760
Michigan,1997,1446
Michigan,1998,1366
Michigan,1999,1382
Michigan,2000,1382
Michigan,2001,1328
Michigan,2002,1277
Michigan,2003,1283
Michigan,2004,1159
Michigan,2005,1129
Michigan,2006,1086
Michigan,2007,1087
Michigan,2008,980
Michigan,2009,872
Michigan,2010,942
Michigan,2011,889
Michigan,2012,940
Michigan,2013,947
Michigan,2014,901
Michigan,2015,967
Michigan,2016,1065
Michigan,2017,1030
Montana,1997,265
Montana,1998,237
Montana,1999,220
Montana,2000,237
Montana,2001,230
Montana,2002,269
Montana,2003,262
Montana,2004,229
Montana,2005,251
Montana,2006,264
Montana,2007,277
Montana,2008,229
Montana,2009,221
Montana,2010,189
Montana,2011,209
Montana,2012,205
Montana,2013,229
Montana,2014,192
Montana,2015,224
Montana,2016,190
Montana,2017,186
New_Jersey,1997,775
New_Jersey,1998,741
New_Jersey,1999,726
New_Jersey,2000,731
New_Jersey,2001,745
New_Jersey,2002,771
New_Jersey,2003,733
New_Jersey,2004,723
New_Jersey,2005,747
New_Jersey,2006,771
New_Jersey,2007,724
New_Jersey,2008,590
New_Jersey,2009,584
New_Jersey,2010,556
New_Jersey,2011,627
New_Jersey,2012,589
New_Jersey,2013,542
New_Jersey,2014,556
New_Jersey,2015,561
New_Jersey,2016,602
New_Jersey,2017,624
New_Mexico,1997,484
New_Mexico,1998,424
New_Mexico,1999,460
New_Mexico,2000,432
New_Mexico,2001,464
New_Mexico,2002,449
New_Mexico,2003,439
New_Mexico,2004,521
New_Mexico,2005,488
New_Mexico,2006,484
New_Mexico,2007,413
New_Mexico,2008,366
New_Mexico,2009,361
New_Mexico,2010,349
New_Mexico,2011,350
New_Mexico,2012,366
New_Mexico,2013,311
New_Mexico,2014,386
New_Mexico,2015,298
New_Mexico,2016,405
New_Mexico,2017,379
North_Dakota,1997,105
North_Dakota,1998,92
North_Dakota,1999,119
North_Dakota,2000,86
North_Dakota,2001,105
North_Dakota,2002,97
North_Dakota,2003,105
North_Dakota,2004,100
North_Dakota,2005,123
North_Dakota,2006,111
North_Dakota,2007,111
North_Dakota,2008,104
North_Dakota,2009,140
North_Dakota,2010,105
North_Dakota,2011,148
North_Dakota,2012,170
North_Dakota,2013,148
North_Dakota,2014,135
North_Dakota,2015,131
North_Dakota,2016,113
North_Dakota,2017,115
Oklahoma,1997,838
Oklahoma,1998,755
Oklahoma,1999,741
Oklahoma,2000,650
Oklahoma,2001,682
Oklahoma,2002,739
Oklahoma,2003,671
Oklahoma,2004,774
Oklahoma,2005,803
Oklahoma,2006,765
Oklahoma,2007,766
Oklahoma,2008,750
Oklahoma,2009,737
Oklahoma,2010,668
Oklahoma,2011,696
Oklahoma,2012,709
Oklahoma,2013,678
Oklahoma,2014,669
Oklahoma,2015,645
Oklahoma,2016,687
Oklahoma,2017,655
Pennsylvania,1997,1557
Pennsylvania,1998,1481
Pennsylvania,1999,1549
Pennsylvania,2000,1520
Pennsylvania,2001,1532
Pennsylvania,2002,1614
Pennsylvania,2003,1577
Pennsylvania,2004,1490
Pennsylvania,2005,1616
Pennsylvania,2006,1525
Pennsylvania,2007,1491
Pennsylvania,2008,1468
Pennsylvania,2009,1256
Pennsylvania,2010,1324
Pennsylvania,2011,1286
Pennsylvania,2012,1310
Pennsylvania,2013,1210
Pennsylvania,2014,1195
Pennsylvania,2015,1200
Pennsylvania,2016,1188
Pennsylvania,2017,1137
South_Carolina,1997,903
South_Carolina,1998,1002
South_Carolina,1999,1065
South_Carolina,2000,1065
South_Carolina,2001,1060
South_Carolina,2002,1053
South_Carolina,2003,969
South_Carolina,2004,1046
South_Carolina,2005,1094
South_Carolina,2006,1045
South_Carolina,2007,1077
South_Carolina,2008,921
South_Carolina,2009,894
South_Carolina,2010,809
South_Carolina,2011,828
South_Carolina,2012,863
South_Carolina,2013,767
South_Carolina,2014,823
South_Carolina,2015,979
South_Carolina,2016,1020
South_Carolina,2017,988
South_Dakota,1997,148
South_Dakota,1998,165
South_Dakota,1999,150
South_Dakota,2000,173
South_Dakota,2001,171
South_Dakota,2002,180
South_Dakota,2003,203
South_Dakota,2004,197
South_Dakota,2005,186
South_Dakota,2006,191
South_Dakota,2007,146
South_Dakota,2008,121
South_Dakota,2009,131
South_Dakota,2010,140
South_Dakota,2011,111
South_Dakota,2012,133
South_Dakota,2013,135
South_Dakota,2014,136
South_Dakota,2015,134
South_Dakota,2016,116
South_Dakota,2017,129
Tennessee,1997,1225
Tennessee,1998,1216
Tennessee,1999,1302
Tennessee,2000,1307
Tennessee,2001,1251
Tennessee,2002,1177
Tennessee,2003,1193
Tennessee,2004,1339
Tennessee,2005,1270
Tennessee,2006,1284
Tennessee,2007,1211
Tennessee,2008,1043
Tennessee,2009,986
Tennessee,2010,1032
Tennessee,2011,937
Tennessee,2012,1015
Tennessee,2013,995
Tennessee,2014,963
Tennessee,2015,962
Tennessee,2016,1037
Tennessee,2017,1040
Texas,1997,3513
Texas,1998,3586
Texas,1999,3522
Texas,2000,3779
Texas,2001,3736
Texas,2002,3823
Texas,2003,3821
Texas,2004,3699
Texas,2005,3536
Texas,2006,3531
Texas,2007,3466
Texas,2008,3476
Texas,2009,3104
Texas,2010,3023
Texas,2011,3054
Texas,2012,3408
Texas,2013,3389
Texas,2014,3536
Texas,2015,3582
Texas,2016,3797
Texas,2017,3722
Utah,1997,366
Utah,1998,350
Utah,1999,360
Utah,2000,373
Utah,2001,291
Utah,2002,328
Utah,2003,309
Utah,2004,296
Utah,2005,282
Utah,2006,287
Utah,2007,299
Utah,2008,276
Utah,2009,244
Utah,2010,253
Utah,2011,243
Utah,2012,217
Utah,2013,220
Utah,2014,256
Utah,2015,278
Utah,2016,281
Utah,2017,273
Virginia,1997,984
Virginia,1998,935
Virginia,1999,878
Virginia,2000,929
Virginia,2001,935
Virginia,2002,914
Virginia,2003,943
Virginia,2004,922
Virginia,2005,947
Virginia,2006,962
Virginia,2007,1027
Virginia,2008,825
Virginia,2009,758
Virginia,2010,740
Virginia,2011,764
Virginia,2012,776
Virginia,2013,740
Virginia,2014,703
Virginia,2015,754
Virginia,2016,760
Virginia,2017,839
West_Virginia,1997,381
West_Virginia,1998,354
West_Virginia,1999,395
West_Virginia,2000,411
West_Virginia,2001,376
West_Virginia,2002,439
West_Virginia,2003,394
West_Virginia,2004,410
West_Virginia,2005,374
West_Virginia,2006,410
West_Virginia,2007,432
West_Virginia,2008,378
West_Virginia,2009,357
West_Virginia,2010,315
West_Virginia,2011,338
West_Virginia,2012,339
West_Virginia,2013,332
West_Virginia,2014,272
West_Virginia,2015,268
West_Virginia,2016,269
West_Virginia,2017,303
Wisconsin,1997,725
Wisconsin,1998,714
Wisconsin,1999,745
Wisconsin,2000,799
Wisconsin,2001,763
Wisconsin,2002,803
Wisconsin,2003,848
Wisconsin,2004,792
Wisconsin,2005,815
Wisconsin,2006,724
Wisconsin,2007,756
Wisconsin,2008,605
Wisconsin,2009,561
Wisconsin,2010,572
Wisconsin,2011,582
Wisconsin,2012,615
Wisconsin,2013,543
Wisconsin,2014,506
Wisconsin,2015,566
Wisconsin,2016,607
Wisconsin,2017,613
Wyoming,1997,137
Wyoming,1998,154
Wyoming,1999,189
Wyoming,2000,152
Wyoming,2001,186
Wyoming,2002,176
Wyoming,2003,165
Wyoming,2004,164
Wyoming,2005,170
Wyoming,2006,195
Wyoming,2007,150
Wyoming,2008,159
Wyoming,2009,134
Wyoming,2010,155
Wyoming,2011,135
Wyoming,2012,123
Wyoming,2013,87
Wyoming,2014,150
Wyoming,2015,145
Wyoming,2016,112
Wyoming,2017,123
Connecticut,1997,339
Connecticut,1998,329
Connecticut,1999,301
Connecticut,2000,341
Connecticut,2001,318
Connecticut,2002,325
Connecticut,2003,298
Connecticut,2004,294
Connecticut,2005,278
Connecticut,2006,311
Connecticut,2007,296
Connecticut,2008,302
Connecticut,2009,224
Connecticut,2010,320
Connecticut,2011,221
Connecticut,2012,264
Connecticut,2013,286
Connecticut,2014,248
Connecticut,2015,270
Connecticut,2016,304
Connecticut,2017,278
Delaware,1997,143
Delaware,1998,115
Delaware,1999,100
Delaware,2000,123
Delaware,2001,136
Delaware,2002,124
Delaware,2003,142
Delaware,2004,134
Delaware,2005,133
Delaware,2006,148
Delaware,2007,117
Delaware,2008,121
Delaware,2009,116
Delaware,2010,101
Delaware,2011,99
Delaware,2012,114
Delaware,2013,99
Delaware,2014,124
Delaware,2015,131
Delaware,2016,119
Delaware,2017,119
Illinois,1997,1397
Illinois,1998,1393
Illinois,1999,1456
Illinois,2000,1418
Illinois,2001,1414
Illinois,2002,1420
Illinois,2003,1454
Illinois,2004,1355
Illinois,2005,1363
Illinois,2006,1254
Illinois,2007,1248
Illinois,2008,1043
Illinois,2009,911
Illinois,2010,927
Illinois,2011,918
Illinois,2012,956
Illinois,2013,991
Illinois,2014,924
Illinois,2015,998
Illinois,2016,1078
Illinois,2017,1097
Maryland,1997,611
Maryland,1998,606
Maryland,1999,590
Maryland,2000,588
Maryland,2001,659
Maryland,2002,661
Maryland,2003,650
Maryland,2004,643
Maryland,2005,614
Maryland,2006,652
Maryland,2007,614
Maryland,2008,591
Maryland,2009,549
Maryland,2010,496
Maryland,2011,485
Maryland,2012,511
Maryland,2013,465
Maryland,2014,442
Maryland,2015,520
Maryland,2016,522
Maryland,2017,550
Minnesota,1997,600
Minnesota,1998,650
Minnesota,1999,626
Minnesota,2000,625
Minnesota,2001,568
Minnesota,2002,657
Minnesota,2003,655
Minnesota,2004,567
Minnesota,2005,559
Minnesota,2006,494
Minnesota,2007,510
Minnesota,2008,455
Minnesota,2009,421
Minnesota,2010,411
Minnesota,2011,368
Minnesota,2012,395
Minnesota,2013,387
Minnesota,2014,361
Minnesota,2015,411
Minnesota,2016,392
Minnesota,2017,357
Mississippi,1997,861
Mississippi,1998,948
Mississippi,1999,927
Mississippi,2000,949
Mississippi,2001,784
Mississippi,2002,885
Mississippi,2003,872
Mississippi,2004,900
Mississippi,2005,931
Mississippi,2006,911
Mississippi,2007,884
Mississippi,2008,783
Mississippi,2009,700
Mississippi,2010,641
Mississippi,2011,630
Mississippi,2012,582
Mississippi,2013,613
Mississippi,2014,607
Mississippi,2015,677
Mississippi,2016,687
Mississippi,2017,690
Missouri,1997,1192
Missouri,1998,1169
Missouri,1999,1094
Missouri,2000,1157
Missouri,2001,1098
Missouri,2002,1208
Missouri,2003,1232
Missouri,2004,1130
Missouri,2005,1257
Missouri,2006,1096
Missouri,2007,992
Missouri,2008,960
Missouri,2009,878
Missouri,2010,821
Missouri,2011,786
Missouri,2012,826
Missouri,2013,757
Missouri,2014,766
Missouri,2015,870
Missouri,2016,947
Missouri,2017,930
Nebraska,1997,302
Nebraska,1998,315
Nebraska,1999,295
Nebraska,2000,276
Nebraska,2001,246
Nebraska,2002,307
Nebraska,2003,293
Nebraska,2004,254
Nebraska,2005,276
Nebraska,2006,269
Nebraska,2007,256
Nebraska,2008,208
Nebraska,2009,223
Nebraska,2010,190
Nebraska,2011,181
Nebraska,2012,212
Nebraska,2013,211
Nebraska,2014,225
Nebraska,2015,246
Nebraska,2016,218
Nebraska,2017,228
New_Hampshire,1997,125
New_Hampshire,1998,128
New_Hampshire,1999,140
New_Hampshire,2000,126
New_Hampshire,2001,142
New_Hampshire,2002,127
New_Hampshire,2003,127
New_Hampshire,2004,171
New_Hampshire,2005,166
New_Hampshire,2006,127
New_Hampshire,2007,129
New_Hampshire,2008,138
New_Hampshire,2009,110
New_Hampshire,2010,128
New_Hampshire,2011,90
New_Hampshire,2012,108
New_Hampshire,2013,135
New_Hampshire,2014,95
New_Hampshire,2015,114
New_Hampshire,2016,136
New_Hampshire,2017,102
New_York,1997,1652
New_York,1998,1514
New_York,1999,1599
New_York,2000,1460
New_York,2001,1564
New_York,2002,1530
New_York,2003,1493
New_York,2004,1495
New_York,2005,1434
New_York,2006,1454
New_York,2007,1332
New_York,2008,1238
New_York,2009,1158
New_York,2010,1201
New_York,2011,1171
New_York,2012,1180
New_York,2013,1202
New_York,2014,1041
New_York,2015,1136
New_York,2016,1041
New_York,2017,999
North_Carolina,1997,1483
North_Carolina,1998,1596
North_Carolina,1999,1505
North_Carolina,2000,1557
North_Carolina,2001,1530
North_Carolina,2002,1576
North_Carolina,2003,1553
North_Carolina,2004,1573
North_Carolina,2005,1547
North_Carolina,2006,1554
North_Carolina,2007,1676
North_Carolina,2008,1428
North_Carolina,2009,1313
North_Carolina,2010,1320
North_Carolina,2011,1230
North_Carolina,2012,1299
North_Carolina,2013,1290
North_Carolina,2014,1284
North_Carolina,2015,1379
North_Carolina,2016,1450
North_Carolina,2017,1412
Ohio,1997,1441
Ohio,1998,1422
Ohio,1999,1430
Ohio,2000,1366
Ohio,2001,1378
Ohio,2002,1418
Ohio,2003,1274
Ohio,2004,1286
Ohio,2005,1321
Ohio,2006,1238
Ohio,2007,1255
Ohio,2008,1191
Ohio,2009,1022
Ohio,2010,1080
Ohio,2011,1017
Ohio,2012,1121
Ohio,2013,989
Ohio,2014,1006
Ohio,2015,1110
Ohio,2016,1132
Ohio,2017,1179
Rhode_Island,1997,75
Rhode_Island,1998,74
Rhode_Island,1999,88
Rhode_Island,2000,80
Rhode_Island,2001,81
Rhode_Island,2002,84
Rhode_Island,2003,104
Rhode_Island,2004,83
Rhode_Island,2005,87
Rhode_Island,2006,81
Rhode_Island,2007,69
Rhode_Island,2008,65
Rhode_Island,2009,83
Rhode_Island,2010,67
Rhode_Island,2011,66
Rhode_Island,2012,64
Rhode_Island,2013,65
Rhode_Island,2014,51
Rhode_Island,2015,45
Rhode_Island,2016,51
Rhode_Island,2017,83